continente|electores_abiles|part_ciudadana|part_ciudadana_porc|actas_procesadas_porc|voto_valido_castillo|voto_valido_keiko|voto_castillo_porc|voto_keiko_porc
     --TODOS--|890,301|320,276|35.97 %|100.0 %|101,197|200,717|33.52 %|66.48 %
     AFRICA|340|76|22.35 %|100.0 %|15|57|20.83 %|79.17 %
     AMERICA|589,488|204,446|34.68 %|100.0 %|59,611|133,084|30.94 %|69.06 %
     ASIA|34,923|12,018|34.41 %|100.0 %|962|10,671|8.27 %|91.73 %
     EUROPA|259,328|101,219|39.03 %|100.0 %|39,931|55,210|41.97 %|58.03 %
     OCEANIA|6,222|2,517|40.45 %|100.0 %|678|1,695|28.57 %|71.43 %
