departamento|electores_abiles|part_ciudadana|part_ciudadana_porc|actas_procesadas_porc|voto_valido_castillo|voto_valido_keiko|voto_castillo_porc|voto_keiko_porc
LA LIBERTAD|1,418,699|1,054,567|74.33 %|100.0 %|389,559|583,784|40.02 %|59.98 %
AMAZONAS|305,210|193,426|63.38 %|100.0 %|120,944|60,333|66.72 %|33.28 %
TUMBES|167,771|131,400|78.32 %|100.0 %|41,464|80,064|34.12 %|65.88 %
TACNA|282,974|224,534|79.35 %|100.0 %|154,223|58,307|72.57 %|27.43 %
SAN MARTIN|631,756|461,543|73.06 %|100.0 %|240,241|187,910|56.11 %|43.89 %
PUNO|920,830|755,977|82.1 %|100.0 %|645,152|77,641|89.26 %|10.74 %
PIURA|1,378,988|1,039,018|75.35 %|100.0 %|384,878|577,780|39.98 %|60.02 %
PASCO|200,682|134,921|67.23 %|100.0 %|82,851|43,922|65.35 %|34.65 %
MOQUEGUA|148,367|116,282|78.38 %|100.0 %|80,520|29,578|73.13 %|26.87 %
MADRE DE DIOS|114,435|84,363|73.72 %|100.0 %|56,493|23,073|71.0 %|29.0 %
LIMA|8,152,365|6,495,428|79.67 %|100.0 %|2,159,847|3,939,672|35.41 %|64.59 %
LAMBAYEQUE|975,129|744,142|76.31 %|100.0 %|289,027|402,152|41.82 %|58.18 %
UCAYALI|387,196|268,044|69.23 %|100.0 %|120,166|129,544|48.12 %|51.88 %
ICA|645,683|516,115|79.93 %|100.0 %|231,808|256,085|47.51 %|52.49 %
HUANUCO|586,411|405,219|69.1 %|100.0 %|255,391|121,865|67.7 %|32.3 %
HUANCAVELICA|298,268|205,964|69.05 %|100.0 %|165,734|29,567|84.86 %|15.14 %
CALLAO|808,366|642,766|79.51 %|100.0 %|195,098|403,813|32.58 %|67.42 %
CAJAMARCA|1,102,661|763,943|69.28 %|100.0 %|509,512|205,341|71.28 %|28.72 %
AYACUCHO|470,417|338,263|71.91 %|100.0 %|265,536|55,782|82.64 %|17.36 %
AREQUIPA|1,137,831|906,733|79.69 %|100.0 %|554,463|300,647|64.84 %|35.16 %
APURIMAC|313,807|225,741|71.94 %|100.0 %|173,312|39,407|81.47 %|18.53 %
ANCASH|884,632|647,947|73.25 %|100.0 %|347,021|247,382|58.38 %|41.62 %
JUNIN|978,762|728,001|74.38 %|99.97 %|395,416|284,555|58.15 %|41.85 %
--TODOS--|23,974,545|18,256,477|76.15 %|99.79 %|8,634,251|8,462,967|50.5 %|49.5 %
LORETO|685,927|427,013|62.25 %|99.04 %|190,625|206,412|48.01 %|51.99 %
CUSCO|977,378|745,127|76.24 %|95.66 %|584,970|118,351|83.17 %|16.83 %
